Series system with exponentially distributed component lifetimes
…
m <- length(theta)

So, in our study, \(\theta = (1, 1.1, 0.95, 1.15, 1.1)'\). The component assigned to index \(j\) has an exponentially distributed lifetime with a failure rate \(\theta_j\), e.g., \(\theta_2 = 1.1\) is the failure rate of the component indexed by \(2\).

Let’s simulate generating the lifetimes of the \(m = 5\) components for this series system:

set.seed(7231) # set seed for reproducibility
n <- 75
comp_times <- matrix(nrow=n,ncol=m)
for (j in 1:m)
    comp_times[,j] <- rexp(n,theta[j])
comp_times <- md_encode_matrix(comp_times,"t")
print(comp_times,n=4)
#> # A tibble: 75 × 5
#>      t1    t2      t3    t4     t5
#>   <dbl> <dbl>   <dbl> <dbl>  <dbl>
#> 1  2.95 0.782 0.132   1.77  0.0265
#> 2  1.10 0.679 0.00914 1.08  1.09  
#> 3  1.20 0.352 0.658   0.928 0.921 
#> 4  1.44 6.03  0.135   2.23  0.519 
#> # ℹ 71 more rows

Next, we use the function md_series_lifetime_right_censoring to decorate the masked data with the right-censor-censoring time chosen by the probability \(\Pr\{T_i > \tau\} = 0.75\):

q <- 0.25
tau <- rep(-(1/sum(theta))*log(q),n)
data <- comp_times %>% md_series_lifetime_right_censoring(tau)
print(data,n=4,drop_latent=TRUE)
#> Latent variables:  t1 t2 t3 t4 t5 
#> # A tibble: 75 × 2
#>         t delta
#>     <dbl> <lgl>
#> 1 0.0265  FALSE
#> 2 0.00914 FALSE
#> 3 0.262   TRUE 
#> 4 0.135   FALSE
#> # ℹ 71 more rows

Masked component cause of failure

We simulate candidate sets using the Bernoulli candidate model with an appropriate set of parameters to satisfy conditions \(C_1\), \(C_2\), and \(C_3\):

p <- .3
data <- data %>% md_bernoulli_cand_C1_C2_C3(p)
print(data[,paste0("q",1:m)],n=4)
#> Latent variables:  q1 q2 q3 q4 q5 t1 t2 t3 t4 t5 
#> # A tibble: 75 × 5
#>      q1    q2    q3    q4    q5
#>   <dbl> <dbl> <dbl> <dbl> <dbl>
#> 1   0.3   0.3   0.3   0.3   1  
#> 2   0.3   0.3   1     0.3   0.3
#> 3   0     0     0     0     0  
#> 4   0.3   0.3   1     0.3   0.3
#> # ℹ 71 more rows

Now, to generate candidate sets, we sample from these probabilities:

data <- data %>% md_cand_sampler()
print(md_boolean_matrix_to_charsets(data,drop_set=TRUE),drop_latent=TRUE,n=6)
#> Latent variables:  q1 q2 q3 q4 q5 t1 t2 t3 t4 t5 
#> # A tibble: 75 × 3
#>         t delta x        
#>     <dbl> <lgl> <chr>    
#> 1 0.0265  FALSE {3, 4, 5}
#> 2 0.00914 FALSE {3}      
#> 3 0.262   TRUE  {}       
#> 4 0.135   FALSE {3, 5}   
#> 5 0.0185  FALSE {2, 3, 4}
#> 6 0.0588  FALSE {3, 4, 5}
#> # ℹ 69 more rows
…
How sensitive is our MLE to sampling conditions? In particular, how sensitive is it when we vary the way the candidate sets are generated? First, let’s vary the parameter \(p\) in the Bernoulli candidate model.

The most informative sample when only changing \(p\) is given by letting \(p=0\), i.e., we know the exact component cause of failure.

data.best <- comp_times %>%
    md_series_lifetime_right_censoring(tau) %>%
    md_bernoulli_cand_C1_C2_C3(p=0) %>%
    md_cand_sampler()

Here’s what the new sample looks like:

print(md_boolean_matrix_to_charsets(data.best,drop_set=TRUE),drop_latent=TRUE)
#> Latent variables:  q1 q2 q3 q4 q5 t1 t2 t3 t4 t5 
#> # A tibble: 75 × 3
#>          t delta x    
#>      <dbl> <lgl> <chr>
#>  1 0.0265  FALSE {5}  
#>  2 0.00914 FALSE {3}  
#>  3 0.262   TRUE  {}   
#>  4 0.135   FALSE {3}  
#>  5 0.0185  FALSE {2}  
#>  6 0.0588  FALSE {3}  
#>  7 0.107   FALSE {1}  
#>  8 0.262   TRUE  {}   
#>  9 0.0965  FALSE {2}  
#> 10 0.101   FALSE {2}  
#> # ℹ 65 more rows
…
