Example of how to use series.system.estimation.masked.data package • series.system.estimation.masked.data
…
Masked data

Masked data is given by an i.i.d. sample of system lifetime data and
plausible candidate sets that contain the failed node.

The R package series.system.estimation.masked.data
contains several simulated masked data sets. For example, a series
system with \(10\) exponentially
distributed component lifetimes is stored in
exp_series_data_3:

print(exp_series_data_3,drop_latent=T,pprint=T)
#> # A tibble: 100,000 × 23
#>          s     k     w    t.1    t.2    t.3     t.4    t.5    t.6     t.7
#>      <dbl> <int> <int>  <dbl>  <dbl>  <dbl>   <dbl>  <dbl>  <dbl>   <dbl>
#>  1 0.00524     4     5 0.560  0.289  0.172  0.00524 0.0557 0.0437 0.618  
#>  2 0.0277      9     3 0.837  0.0769 0.528  0.278   0.0659 0.166  0.0405 
#>  3 0.0487      7     3 0.278  0.136  0.546  0.180   0.0893 0.348  0.0487 
#>  4 0.00223     9     2 0.194  0.207  0.0132 0.201   0.237  0.175  0.137  
#>  5 0.00521     7     7 0.0500 0.335  0.376  0.00958 0.0263 1.39   0.00521
#>  6 0.00913     8     8 0.398  0.0327 0.125  0.144   0.193  0.0135 0.275  
#>  7 0.0356      3     6 0.402  0.187  0.0356 0.152   0.0356 1.01   0.142  
#>  8 0.0264      4     7 0.542  0.290  0.107  0.0264  0.0392 2.95   0.0952 
#>  9 0.0156      4     5 1.44   0.137  0.0245 0.0156  0.115  0.301  0.112  
#> 10 0.00701     9     7 0.145  0.260  0.396  0.114   0.647  0.388  0.182  
#> # … with 99,990 more rows, and 13 more variables: t.8 <dbl>, t.9 <dbl>,
#> #   t.10 <dbl>, c.1 <lgl>, c.2 <lgl>, c.3 <lgl>, c.4 <lgl>, c.5 <lgl>,
#> #   c.6 <lgl>, c.7 <lgl>, c.8 <lgl>, c.9 <lgl>, c.10 <lgl>
…
