…
Let’s simulate generating the lifetimes of the $m = 5$ components for
this series system:

``` r
set.seed(7231) # set seed for reproducibility
n <- 7500
comp_times <- matrix(nrow=n,ncol=m)
for (j in 1:m)
    comp_times[,j] <- rexp(n,theta[j])
comp_times <- md_encode_matrix(comp_times,"t")
print(comp_times,n=4)
#> # A tibble: 7,500 × 5
#>      t1     t2    t3     t4    t5
#>   <dbl>  <dbl> <dbl>  <dbl> <dbl>
#> 1  2.95 1.67   0.777 0.0476 0.380
#> 2  1.10 2.20   2.59  3.27   0.626
#> 3  1.20 0.0956 3.74  1.80   2.13 
#> 4  1.44 0.0460 0.123 0.522  0.102
#> # ℹ 7,496 more rows
```

Next, we use the function `md_series_lifetime_right_censoring` to
decorate the masked data with the right-censor-censoring time chosen by
the probability $\Pr\{ T_{i} > \tau\} = 0.75$:

``` r
q <- 0.25
tau <- rep(-(1/sum(theta))*log(q),n)
data <- comp_times %>% md_series_lifetime_right_censoring(tau)
print(data,n=4,drop_latent=TRUE)
#> Latent variables:  t1 t2 t3 t4 t5 
#> # A tibble: 7,500 × 2
#>        t delta
#>    <dbl> <lgl>
#> 1 0.0476 TRUE 
#> 2 0.262  FALSE
#> 3 0.0956 TRUE 
#> 4 0.0460 TRUE 
#> # ℹ 7,496 more rows
```

### Masked component cause of failure

We simulate candidate sets using the Bernoulli candidate model with an
appropriate set of parameters to satisfy conditions $C_{1}$, $C_{2}$,
and $C_{3}$:

``` r
p <- .3
data <- data %>% md_bernoulli_cand_c1_c2_c3(p)
print(data[,paste0("q",1:m)],n=4)
#> Latent variables:  q1 q2 q3 q4 q5 t1 t2 t3 t4 t5 
#> # A tibble: 7,500 × 5
#>      q1    q2    q3    q4    q5
#>   <dbl> <dbl> <dbl> <dbl> <dbl>
#> 1   0.3   0.3   0.3   1     0.3
#> 2   0     0     0     0     0  
#> 3   0.3   1     0.3   0.3   0.3
#> 4   0.3   1     0.3   0.3   0.3
#> # ℹ 7,496 more rows
```

Now, to generate candidate sets, we sample from these probabilities:

``` r
data <- data %>% md_cand_sampler()
print(md_boolean_matrix_to_charsets(data,drop_set=TRUE),drop_latent=TRUE,n=6)
#> Latent variables:  q1 q2 q3 q4 q5 t1 t2 t3 t4 t5 
#> # A tibble: 7,500 × 3
#>        t delta x        
#>    <dbl> <lgl> <chr>    
#> 1 0.0476 TRUE  {1, 4}   
#> 2 0.262  FALSE {}       
#> 3 0.0956 TRUE  {1, 2, 5}
#> 4 0.0460 TRUE  {1, 2, 4}
#> 5 0.0290 TRUE  {4}      
#> 6 0.160  TRUE  {3, 5}   
#> # ℹ 7,494 more rows
```
…
